
jiantou.png
size: 910,145
format: RGBA8888
filter: Linear,Linear
repeat: none
00
  rotate: false
  xy: 0, 0
  size: 302, 145
  orig: 302, 145
  offset: 0, 0
  index: -1
f1
  rotate: false
  xy: 821, 21
  size: 89, 124
  orig: 89, 124
  offset: 0, 0
  index: -1
f2
  rotate: false
  xy: 604, 81
  size: 217, 64
  orig: 217, 64
  offset: 0, 0
  index: -1
f3
  rotate: false
  xy: 302, 21
  size: 302, 124
  orig: 302, 124
  offset: 0, 0
  index: -1
