
sanjiao.png
size: 241,92
format: RGBA8888
filter: Linear,Linear
repeat: none
jiao
  rotate: false
  xy: 2, 4
  size: 152, 86
  orig: 152, 86
  offset: 0, 0
  index: -1
xin
  rotate: false
  xy: 156, 2
  size: 83, 88
  orig: 83, 88
  offset: 0, 0
  index: -1
